p2: Tidy and Transform Three data set
…
Perform analysis

1. How many vaccines do each country get each day? and which country gets the most and the least vaccinations each day?

from avg_vacc table, we can see the average vaccination situation of each country. Meanwhile, the most vaccinated country is the United States, and the least vaccinated country is Montserrat

avg_vacc <- df %>% 
  select(country, num_of_days, total_vaccine)%>%
  mutate(avg_vacc = round(total_vaccine/num_of_days,0))
avg_vacc

## # A tibble: 133 x 4
##    country    num_of_days total_vaccine avg_vacc
##    <chr>            <int>         <dbl>    <dbl>
##  1 Albania             60         21613      360
##  2 Algeria             22         75000     3409
##  3 Andorra             45          4914      109
##  4 Angola               4          6169     1542
##  5 Anguilla            23          3929      171
##  6 Argentina           73       1919074    26289
##  7 Australia           25        125000     5000
##  8 Austria             75        929497    12393
##  9 Azerbaijan          54        436849     8090
## 10 Bahrain             79        520429     6588
## #  with 123 more rows
…
2. What is the future demand for vaccines in the top five countries in terms of total vaccine doses?

approches

the top 5 countries are United States, China, India, United Kingdom, England.

df %>% 
  select(country, total_vaccine)%>%
  arrange(desc(total_vaccine))

## # A tibble: 133 x 2
##    country        total_vaccine
##    <chr>                  <dbl>
##  1 United States       98203893
##  2 China               52520000
##  3 India               26164920
##  4 United Kingdom      24405231
##  5 England             20526312
##  6 Brazil              10740859
##  7 Turkey              10502494
##  8 Israel               9179072
##  9 Germany              8716654
## 10 Russia               7273933
## #  with 123 more rows
…
